[{
	"_id": {
		"$oid": "5ee9250c761cf87371cf32ce"
	},
	"topic": "Linux Kernel Development",
	"KSATs": [
		{
			"object_id": {
				"$oid": "5f457f1e1ea90ba9adb32e9a"
			},
			"item_proficiency": "3",
			"url": "https://90cos.gitlab.io/cyv/admin/Exam-Handouts/CCD-Senior/Handout-Perform-Senior-Linux.html"
		},
		{
			"object_id": {
				"$oid": "5f457f1e1ea90ba9adb32e9d"
			},
			"item_proficiency": "3",
			"url": "https://90cos.gitlab.io/cyv/admin/Exam-Handouts/CCD-Senior/Handout-Perform-Senior-Linux.html"
		},
		{
			"object_id": {
				"$oid": "5f457f1e1ea90ba9adb32ea5"
			},
			"item_proficiency": "2",
			"url": "https://90cos.gitlab.io/cyv/admin/Exam-Handouts/CCD-Senior/Handout-Perform-Senior-Linux.html"
		},
		{
			"object_id": {
				"$oid": "5f457f1e1ea90ba9adb32eac"
			},
			"item_proficiency": "2",
			"url": "https://90cos.gitlab.io/cyv/admin/Exam-Handouts/CCD-Senior/Handout-Perform-Senior-Linux.html"
		},
		{
			"object_id": {
				"$oid": "5f457f1e1ea90ba9adb32eb3"
			},
			"item_proficiency": "2",
			"url": "https://90cos.gitlab.io/cyv/admin/Exam-Handouts/CCD-Senior/Handout-Perform-Senior-Linux.html"
		},
		{
			"object_id": {
				"$oid": "5f457f1e1ea90ba9adb32eb5"
			},
			"item_proficiency": "3",
			"url": "https://90cos.gitlab.io/cyv/admin/Exam-Handouts/CCD-Senior/Handout-Perform-Senior-Linux.html"
		},
		{
			"object_id": {
				"$oid": "5f457f1e1ea90ba9adb32eb4"
			},
			"item_proficiency": "3",
			"url": "https://90cos.gitlab.io/cyv/admin/Exam-Handouts/CCD-Senior/Handout-Perform-Senior-Linux.html"
		},
		{
			"object_id": {
				"$oid": "5f457f1e1ea90ba9adb32eb7"
			},
			"item_proficiency": "3",
			"url": "https://90cos.gitlab.io/cyv/admin/Exam-Handouts/CCD-Senior/Handout-Perform-Senior-Linux.html"
		},
		{
			"object_id": {
				"$oid": "5f457f1e1ea90ba9adb32c17"
			},
			"item_proficiency": "B",
			"url": "https://90cos.gitlab.io/cyv/admin/Exam-Handouts/CCD-Senior/Handout-Perform-Senior-Linux.html"
		},
		{
			"object_id": {
				"$oid": "5f457f1e1ea90ba9adb32c24"
			},
			"item_proficiency": "B",
			"url": "https://90cos.gitlab.io/cyv/admin/Exam-Handouts/CCD-Senior/Handout-Perform-Senior-Linux.html"
		},
		{
			"object_id": {
				"$oid": "5f457f1e1ea90ba9adb32eec"
			},
			"item_proficiency": "",
			"url": "https://90cos.gitlab.io/cyv/admin/Exam-Handouts/CCD-Senior/Handout-Perform-Senior-Linux.html"
		},
		{
			"object_id": {
				"$oid": "5f457f1e1ea90ba9adb32e0f"
			},
			"item_proficiency": "3",
			"url": "https://90cos.gitlab.io/cyv/admin/Exam-Handouts/CCD-Senior/Handout-Perform-Senior-Linux.html"
		},
		{
			"object_id": {
				"$oid": "5f457f1e1ea90ba9adb32e0e"
			},
			"item_proficiency": "3",
			"url": "https://90cos.gitlab.io/cyv/admin/Exam-Handouts/CCD-Senior/Handout-Perform-Senior-Linux.html"
		},
		{
			"object_id": {
				"$oid": "5f457f1e1ea90ba9adb32de1"
			},
			"item_proficiency": "3",
			"url": "https://90cos.gitlab.io/cyv/admin/Exam-Handouts/CCD-Senior/Handout-Perform-Senior-Linux.html"
		}
	],
	"complexity": 5,
	"revision_number": 1,
	"disabled": false,
	"provisioned": 0,
	"attempts": 0,
	"passes": 0,
	"failures": 0,
	"test_id": "SCCD-L",
	"test_type": "performance",
	"question_id": "SDL_KD_0003",
	"network": "commercial",
	"question_name": "linux_kernel_pid_translate",
	"language": "Fedora",
	"question_proficiency": "2",
	"estimated_time_to_complete": 2,
	"created_on": "2020-06-16",
	"updated_on": "2020-07-06",
	"work-roles": [
		"SCCD-L"
	],
	"map_for": "eval"
},
{
	"_id": {
		"$oid": "5ee9250c761cf87371cf32cf"
	},
	"topic": "Linux Kernel Development",
	"KSATs": [
		{
			"object_id": {
				"$oid": "5f457f1e1ea90ba9adb32e9a"
			},
			"item_proficiency": "3",
			"url": "https://90cos.gitlab.io/cyv/admin/Exam-Handouts/CCD-Senior/Handout-Perform-Senior-Linux.html"
		},
		{
			"object_id": {
				"$oid": "5f457f1e1ea90ba9adb32e9d"
			},
			"item_proficiency": "3",
			"url": "https://90cos.gitlab.io/cyv/admin/Exam-Handouts/CCD-Senior/Handout-Perform-Senior-Linux.html"
		},
		{
			"object_id": {
				"$oid": "5f457f1e1ea90ba9adb32ea5"
			},
			"item_proficiency": "2",
			"url": "https://90cos.gitlab.io/cyv/admin/Exam-Handouts/CCD-Senior/Handout-Perform-Senior-Linux.html"
		},
		{
			"object_id": {
				"$oid": "5f457f1e1ea90ba9adb32ea3"
			},
			"item_proficiency": "2",
			"url": "https://90cos.gitlab.io/cyv/admin/Exam-Handouts/CCD-Senior/Handout-Perform-Senior-Linux.html"
		},
		{
			"object_id": {
				"$oid": "5f457f1e1ea90ba9adb32eac"
			},
			"item_proficiency": "2",
			"url": "https://90cos.gitlab.io/cyv/admin/Exam-Handouts/CCD-Senior/Handout-Perform-Senior-Linux.html"
		},
		{
			"object_id": {
				"$oid": "5f457f1e1ea90ba9adb32eb3"
			},
			"item_proficiency": "2",
			"url": "https://90cos.gitlab.io/cyv/admin/Exam-Handouts/CCD-Senior/Handout-Perform-Senior-Linux.html"
		},
		{
			"object_id": {
				"$oid": "5f457f1e1ea90ba9adb32a7f"
			},
			"item_proficiency": "3",
			"url": "https://90cos.gitlab.io/cyv/admin/Exam-Handouts/CCD-Senior/Handout-Perform-Senior-Linux.html"
		},
		{
			"object_id": {
				"$oid": "5f457f1e1ea90ba9adb32b86"
			},
			"item_proficiency": "C",
			"url": "https://90cos.gitlab.io/cyv/admin/Exam-Handouts/CCD-Senior/Handout-Perform-Senior-Linux.html"
		},
		{
			"object_id": {
				"$oid": "5f457f1e1ea90ba9adb32c39"
			},
			"item_proficiency": "B",
			"url": "https://90cos.gitlab.io/cyv/admin/Exam-Handouts/CCD-Senior/Handout-Perform-Senior-Linux.html"
		},
		{
			"object_id": {
				"$oid": "5f457f1e1ea90ba9adb32c24"
			},
			"item_proficiency": "B",
			"url": "https://90cos.gitlab.io/cyv/admin/Exam-Handouts/CCD-Senior/Handout-Perform-Senior-Linux.html"
		},
		{
			"object_id": {
				"$oid": "5f457f1e1ea90ba9adb32eec"
			},
			"item_proficiency": "",
			"url": "https://90cos.gitlab.io/cyv/admin/Exam-Handouts/CCD-Senior/Handout-Perform-Senior-Linux.html"
		},
		{
			"object_id": {
				"$oid": "5f457f1e1ea90ba9adb32e0e"
			},
			"item_proficiency": "3",
			"url": "https://90cos.gitlab.io/cyv/admin/Exam-Handouts/CCD-Senior/Handout-Perform-Senior-Linux.html"
		},
		{
			"object_id": {
				"$oid": "5f457f1e1ea90ba9adb32e19"
			},
			"item_proficiency": "3",
			"url": "https://90cos.gitlab.io/cyv/admin/Exam-Handouts/CCD-Senior/Handout-Perform-Senior-Linux.html"
		},
		{
			"object_id": {
				"$oid": "5f457f1e1ea90ba9adb32dd7"
			},
			"item_proficiency": "3",
			"url": "https://90cos.gitlab.io/cyv/admin/Exam-Handouts/CCD-Senior/Handout-Perform-Senior-Linux.html"
		},
		{
			"object_id": {
				"$oid": "5f457f1e1ea90ba9adb32e11"
			},
			"item_proficiency": "3",
			"url": "https://90cos.gitlab.io/cyv/admin/Exam-Handouts/CCD-Senior/Handout-Perform-Senior-Linux.html"
		}
	],
	"complexity": 5,
	"revision_number": 1,
	"disabled": false,
	"provisioned": 0,
	"attempts": 0,
	"passes": 0,
	"failures": 0,
	"test_id": "SCCD-L",
	"test_type": "performance",
	"question_id": "SDL_KD_0002",
	"network": "commercial",
	"question_name": "linux_elf_parsing",
	"language": "Fedora",
	"question_proficiency": "3",
	"estimated_time_to_complete": 2,
	"created_on": "2020-06-16",
	"updated_on": "2020-07-06",
	"work-roles": [
		"SCCD-L"
	],
	"map_for": "eval"
},
{
	"_id": {
		"$oid": "5ee9250c761cf87371cf32d0"
	},
	"topic": "Linux Kernel Development",
	"KSATs": [
		{
			"object_id": {
				"$oid": "5f457f1e1ea90ba9adb32e9a"
			},
			"item_proficiency": "3",
			"url": "https://90cos.gitlab.io/cyv/admin/Exam-Handouts/CCD-Senior/Handout-Perform-Senior-Linux.html"
		},
		{
			"object_id": {
				"$oid": "5f457f1e1ea90ba9adb32e9d"
			},
			"item_proficiency": "3",
			"url": "https://90cos.gitlab.io/cyv/admin/Exam-Handouts/CCD-Senior/Handout-Perform-Senior-Linux.html"
		},
		{
			"object_id": {
				"$oid": "5f457f1e1ea90ba9adb32a66"
			},
			"item_proficiency": "2",
			"url": "https://90cos.gitlab.io/cyv/admin/Exam-Handouts/CCD-Senior/Handout-Perform-Senior-Linux.html"
		},
		{
			"object_id": {
				"$oid": "5f457f1e1ea90ba9adb32a67"
			},
			"item_proficiency": "2",
			"url": "https://90cos.gitlab.io/cyv/admin/Exam-Handouts/CCD-Senior/Handout-Perform-Senior-Linux.html"
		},
		{
			"object_id": {
				"$oid": "5f457f1e1ea90ba9adb32a6a"
			},
			"item_proficiency": "2",
			"url": "https://90cos.gitlab.io/cyv/admin/Exam-Handouts/CCD-Senior/Handout-Perform-Senior-Linux.html"
		},
		{
			"object_id": {
				"$oid": "5f457f1e1ea90ba9adb32a87"
			},
			"item_proficiency": "2",
			"url": "https://90cos.gitlab.io/cyv/admin/Exam-Handouts/CCD-Senior/Handout-Perform-Senior-Linux.html"
		},
		{
			"object_id": {
				"$oid": "5f457f1e1ea90ba9adb32a8a"
			},
			"item_proficiency": "2",
			"url": "https://90cos.gitlab.io/cyv/admin/Exam-Handouts/CCD-Senior/Handout-Perform-Senior-Linux.html"
		},
		{
			"object_id": {
				"$oid": "5f457f1e1ea90ba9adb32c3b"
			},
			"item_proficiency": "A",
			"url": "https://90cos.gitlab.io/cyv/admin/Exam-Handouts/CCD-Senior/Handout-Perform-Senior-Linux.html"
		},
		{
			"object_id": {
				"$oid": "5f457f1e1ea90ba9adb32c25"
			},
			"item_proficiency": "B",
			"url": "https://90cos.gitlab.io/cyv/admin/Exam-Handouts/CCD-Senior/Handout-Perform-Senior-Linux.html"
		},
		{
			"object_id": {
				"$oid": "5f457f1e1ea90ba9adb32c2f"
			},
			"item_proficiency": "B",
			"url": "https://90cos.gitlab.io/cyv/admin/Exam-Handouts/CCD-Senior/Handout-Perform-Senior-Linux.html"
		},
		{
			"object_id": {
				"$oid": "5f457f1e1ea90ba9adb32c27"
			},
			"item_proficiency": "A",
			"url": "https://90cos.gitlab.io/cyv/admin/Exam-Handouts/CCD-Senior/Handout-Perform-Senior-Linux.html"
		},
		{
			"object_id": {
				"$oid": "5f457f1e1ea90ba9adb32c67"
			},
			"item_proficiency": "A",
			"url": "https://90cos.gitlab.io/cyv/admin/Exam-Handouts/CCD-Senior/Handout-Perform-Senior-Linux.html"
		},
		{
			"object_id": {
				"$oid": "5f457f1e1ea90ba9adb32cb1"
			},
			"item_proficiency": "A",
			"url": "https://90cos.gitlab.io/cyv/admin/Exam-Handouts/CCD-Senior/Handout-Perform-Senior-Linux.html"
		},
		{
			"object_id": {
				"$oid": "5f457f1e1ea90ba9adb32f07"
			},
			"item_proficiency": "",
			"url": "https://90cos.gitlab.io/cyv/admin/Exam-Handouts/CCD-Senior/Handout-Perform-Senior-Linux.html"
		},
		{
			"object_id": {
				"$oid": "5f457f1e1ea90ba9adb32ef2"
			},
			"item_proficiency": "",
			"url": "https://90cos.gitlab.io/cyv/admin/Exam-Handouts/CCD-Senior/Handout-Perform-Senior-Linux.html"
		},
		{
			"object_id": {
				"$oid": "5f457f1e1ea90ba9adb32eef"
			},
			"item_proficiency": "",
			"url": "https://90cos.gitlab.io/cyv/admin/Exam-Handouts/CCD-Senior/Handout-Perform-Senior-Linux.html"
		},
		{
			"object_id": {
				"$oid": "5f457f1e1ea90ba9adb32eee"
			},
			"item_proficiency": "",
			"url": "https://90cos.gitlab.io/cyv/admin/Exam-Handouts/CCD-Senior/Handout-Perform-Senior-Linux.html"
		},
		{
			"object_id": {
				"$oid": "5f457f1e1ea90ba9adb32f01"
			},
			"item_proficiency": "",
			"url": "https://90cos.gitlab.io/cyv/admin/Exam-Handouts/CCD-Senior/Handout-Perform-Senior-Linux.html"
		}
	],
	"complexity": 5,
	"revision_number": 1,
	"disabled": false,
	"provisioned": 0,
	"attempts": 0,
	"passes": 0,
	"failures": 0,
	"test_id": "SCCD-L",
	"test_type": "performance",
	"question_id": "SDL_KD_0005",
	"network": "commercial",
	"question_name": "linux_vr1",
	"language": "Fedora",
	"question_proficiency": "2",
	"estimated_time_to_complete": 2,
	"created_on": "2020-06-16",
	"updated_on": "2020-08-19",
	"work-roles": [
		"SCCD-L"
	],
	"map_for": "eval"
},
{
	"_id": {
		"$oid": "5ee9250c761cf87371cf32d1"
	},
	"topic": "Linux Kernel Development",
	"KSATs": [
		{
			"object_id": {
				"$oid": "5f457f1e1ea90ba9adb32ea5"
			},
			"item_proficiency": "2",
			"url": "https://90cos.gitlab.io/cyv/admin/Exam-Handouts/CCD-Senior/Handout-Perform-Senior-Linux.html"
		},
		{
			"object_id": {
				"$oid": "5f457f1e1ea90ba9adb32eac"
			},
			"item_proficiency": "2",
			"url": "https://90cos.gitlab.io/cyv/admin/Exam-Handouts/CCD-Senior/Handout-Perform-Senior-Linux.html"
		},
		{
			"object_id": {
				"$oid": "5f457f1e1ea90ba9adb32a53"
			},
			"item_proficiency": "2",
			"url": "https://90cos.gitlab.io/cyv/admin/Exam-Handouts/CCD-Senior/Handout-Perform-Senior-Linux.html"
		},
		{
			"object_id": {
				"$oid": "5f457f1e1ea90ba9adb32eb3"
			},
			"item_proficiency": "2",
			"url": "https://90cos.gitlab.io/cyv/admin/Exam-Handouts/CCD-Senior/Handout-Perform-Senior-Linux.html"
		},
		{
			"object_id": {
				"$oid": "5f457f1e1ea90ba9adb32eb7"
			},
			"item_proficiency": "3",
			"url": "https://90cos.gitlab.io/cyv/admin/Exam-Handouts/CCD-Senior/Handout-Perform-Senior-Linux.html"
		},
		{
			"object_id": {
				"$oid": "5f457f1e1ea90ba9adb32c24"
			},
			"item_proficiency": "B",
			"url": "https://90cos.gitlab.io/cyv/admin/Exam-Handouts/CCD-Senior/Handout-Perform-Senior-Linux.html"
		},
		{
			"object_id": {
				"$oid": "5f457f1e1ea90ba9adb32eec"
			},
			"item_proficiency": "",
			"url": "https://90cos.gitlab.io/cyv/admin/Exam-Handouts/CCD-Senior/Handout-Perform-Senior-Linux.html"
		},
		{
			"object_id": {
				"$oid": "5f457f1e1ea90ba9adb32dd7"
			},
			"item_proficiency": "3",
			"url": "https://90cos.gitlab.io/cyv/admin/Exam-Handouts/CCD-Senior/Handout-Perform-Senior-Linux.html"
		}
	],
	"complexity": 5,
	"revision_number": 1,
	"disabled": false,
	"provisioned": 0,
	"attempts": 0,
	"passes": 0,
	"failures": 0,
	"test_id": "SCCD-L",
	"test_type": "performance",
	"question_id": "SDL_KD_0001",
	"network": "commercial",
	"question_name": "linux_userspace_multithreaded2",
	"language": "Fedora",
	"question_proficiency": "2",
	"estimated_time_to_complete": 2,
	"created_on": "2020-06-16",
	"updated_on": "2020-07-06",
	"work-roles": [
		"SCCD-L"
	],
	"map_for": "eval"
},
{
	"_id": {
		"$oid": "5ee9250c761cf87371cf32d2"
	},
	"topic": "Linux Kernel Development",
	"KSATs": [
		{
			"object_id": {
				"$oid": "5f457f1e1ea90ba9adb32e9a"
			},
			"item_proficiency": "3",
			"url": "https://90cos.gitlab.io/cyv/admin/Exam-Handouts/CCD-Senior/Handout-Perform-Senior-Linux.html"
		},
		{
			"object_id": {
				"$oid": "5f457f1e1ea90ba9adb32e9d"
			},
			"item_proficiency": "3",
			"url": "https://90cos.gitlab.io/cyv/admin/Exam-Handouts/CCD-Senior/Handout-Perform-Senior-Linux.html"
		},
		{
			"object_id": {
				"$oid": "5f457f1e1ea90ba9adb32ea5"
			},
			"item_proficiency": "2",
			"url": "https://90cos.gitlab.io/cyv/admin/Exam-Handouts/CCD-Senior/Handout-Perform-Senior-Linux.html"
		},
		{
			"object_id": {
				"$oid": "5f457f1e1ea90ba9adb32eab"
			},
			"item_proficiency": "2",
			"url": "https://90cos.gitlab.io/cyv/admin/Exam-Handouts/CCD-Senior/Handout-Perform-Senior-Linux.html"
		},
		{
			"object_id": {
				"$oid": "5f457f1e1ea90ba9adb32eac"
			},
			"item_proficiency": "2",
			"url": "https://90cos.gitlab.io/cyv/admin/Exam-Handouts/CCD-Senior/Handout-Perform-Senior-Linux.html"
		},
		{
			"object_id": {
				"$oid": "5f457f1e1ea90ba9adb32ebe"
			},
			"item_proficiency": "3",
			"url": "https://90cos.gitlab.io/cyv/admin/Exam-Handouts/CCD-Senior/Handout-Perform-Senior-Linux.html"
		},
		{
			"object_id": {
				"$oid": "5f457f1e1ea90ba9adb32a67"
			},
			"item_proficiency": "2",
			"url": "https://90cos.gitlab.io/cyv/admin/Exam-Handouts/CCD-Senior/Handout-Perform-Senior-Linux.html"
		},
		{
			"object_id": {
				"$oid": "5f457f1e1ea90ba9adb32a6a"
			},
			"item_proficiency": "2",
			"url": "https://90cos.gitlab.io/cyv/admin/Exam-Handouts/CCD-Senior/Handout-Perform-Senior-Linux.html"
		},
		{
			"object_id": {
				"$oid": "5f457f1e1ea90ba9adb32a87"
			},
			"item_proficiency": "2",
			"url": "https://90cos.gitlab.io/cyv/admin/Exam-Handouts/CCD-Senior/Handout-Perform-Senior-Linux.html"
		},
		{
			"object_id": {
				"$oid": "5f457f1e1ea90ba9adb32a8a"
			},
			"item_proficiency": "2",
			"url": "https://90cos.gitlab.io/cyv/admin/Exam-Handouts/CCD-Senior/Handout-Perform-Senior-Linux.html"
		},
		{
			"object_id": {
				"$oid": "5f457f1e1ea90ba9adb32c37"
			},
			"item_proficiency": "B",
			"url": "https://90cos.gitlab.io/cyv/admin/Exam-Handouts/CCD-Senior/Handout-Perform-Senior-Linux.html"
		},
		{
			"object_id": {
				"$oid": "5f457f1e1ea90ba9adb32c1d"
			},
			"item_proficiency": "B",
			"url": "https://90cos.gitlab.io/cyv/admin/Exam-Handouts/CCD-Senior/Handout-Perform-Senior-Linux.html"
		},
		{
			"object_id": {
				"$oid": "5f457f1e1ea90ba9adb32c33"
			},
			"item_proficiency": "B",
			"url": "https://90cos.gitlab.io/cyv/admin/Exam-Handouts/CCD-Senior/Handout-Perform-Senior-Linux.html"
		},
		{
			"object_id": {
				"$oid": "5f457f1e1ea90ba9adb32c65"
			},
			"item_proficiency": "A",
			"url": "https://90cos.gitlab.io/cyv/admin/Exam-Handouts/CCD-Senior/Handout-Perform-Senior-Linux.html"
		},
		{
			"object_id": {
				"$oid": "5f457f1e1ea90ba9adb32eec"
			},
			"item_proficiency": "",
			"url": "https://90cos.gitlab.io/cyv/admin/Exam-Handouts/CCD-Senior/Handout-Perform-Senior-Linux.html"
		}
	],
	"complexity": 5,
	"revision_number": 1,
	"disabled": false,
	"provisioned": 0,
	"attempts": 0,
	"passes": 0,
	"failures": 0,
	"test_id": "SCCD-L",
	"test_type": "performance",
	"question_id": "SDL_KD_0004",
	"network": "commercial",
	"question_name": "linux_userspace_looks_for_file",
	"language": "Fedora",
	"question_proficiency": "2",
	"estimated_time_to_complete": 2,
	"created_on": "2020-06-16",
	"updated_on": "2020-08-19",
	"work-roles": [
		"SCCD-L"
	],
	"map_for": "eval"
},
{
	"_id": {
		"$oid": "60a400288e87c19e1325b821"
	},
	"topic": "Linux User Mode",
	"KSATs": [
		{
			"object_id": {
				"$oid": "5f457f1e1ea90ba9adb32ea5"
			},
			"item_proficiency": "3",
			"url": "https://gitlab.com/90cos/cyber-capability-developer-ccd-eval-study/ccd-master-question-file/-/tree/master/performance/C_Programming/linux_midi_parser/TestCode.c"
		},
		{
			"object_id": {
				"$oid": "5f457f1e1ea90ba9adb32a7f"
			},
			"item_proficiency": "3",
			"url": "https://gitlab.com/90cos/cyber-capability-developer-ccd-eval-study/ccd-master-question-file/-/tree/master/performance/C_Programming/linux_midi_parser/TestCode.c"
		},
		{
			"object_id": {
				"$oid": "5f457f1e1ea90ba9adb32eec"
			},
			"item_proficiency": "3",
			"url": "https://gitlab.com/90cos/cyber-capability-developer-ccd-eval-study/ccd-master-question-file/-/tree/master/performance/C_Programming/linux_midi_parser/TestCode.c"
		}
	],
	"complexity": 3,
	"revision_number": 1,
	"disabled": false,
	"provisioned": 0,
	"attempts": 0,
	"passes": 0,
	"failures": 0,
	"test_id": "SCCD-L",
	"test_type": "performance",
	"question_id": "SDL_KD_0007",
	"network": "commercial",
	"question_name": "linux_midi_parser",
	"language": "C99",
	"question_proficiency": "3",
	"estimated_time_to_complete": 1,
	"work-roles": [
		"SCCD-L"
	],
	"map_for": "eval",
	"created_on": "2021-05-18"
},
{
	"_id": {
		"$oid": "609eef63e802d23245036d0f"
	},
	"topic": "Linux Kernel Development",
	"KSATs": [
		{
			"object_id": {
				"$oid": "5f457f1e1ea90ba9adb32e9a"
			},
			"item_proficiency": "2",
			"url": "https://90cos.gitlab.io/cyv/admin/Exam-Handouts/CCD-Senior/Handout-Perform-Senior-Linux.html"
		},
		{
			"object_id": {
				"$oid": "5f457f1e1ea90ba9adb32eb3"
			},
			"item_proficiency": "2",
			"url": "https://90cos.gitlab.io/cyv/admin/Exam-Handouts/CCD-Senior/Handout-Perform-Senior-Linux.html"
		},
		{
			"object_id": {
				"$oid": "5f457f1e1ea90ba9adb32eb5"
			},
			"item_proficiency": "2",
			"url": "https://90cos.gitlab.io/cyv/admin/Exam-Handouts/CCD-Senior/Handout-Perform-Senior-Linux.html"
		},
		{
			"object_id": {
				"$oid": "5f457f1e1ea90ba9adb32eb7"
			},
			"item_proficiency": "2",
			"url": "https://90cos.gitlab.io/cyv/admin/Exam-Handouts/CCD-Senior/Handout-Perform-Senior-Linux.html"
		},
		{
			"object_id": {
				"$oid": "5f457f1e1ea90ba9adb32c17"
			},
			"item_proficiency": "B",
			"url": "https://90cos.gitlab.io/cyv/admin/Exam-Handouts/CCD-Senior/Handout-Perform-Senior-Linux.html"
		},
		{
			"object_id": {
				"$oid": "5f457f1e1ea90ba9adb32c11"
			},
			"item_proficiency": "B",
			"url": "https://90cos.gitlab.io/cyv/admin/Exam-Handouts/CCD-Senior/Handout-Perform-Senior-Linux.html"
		},
		{
			"object_id": {
				"$oid": "5f457f1e1ea90ba9adb32c24"
			},
			"item_proficiency": "B",
			"url": "https://90cos.gitlab.io/cyv/admin/Exam-Handouts/CCD-Senior/Handout-Perform-Senior-Linux.html"
		},
		{
			"object_id": {
				"$oid": "5f457f1e1ea90ba9adb32eec"
			},
			"item_proficiency": "2",
			"url": "https://90cos.gitlab.io/cyv/admin/Exam-Handouts/CCD-Senior/Handout-Perform-Senior-Linux.html"
		}
	],
	"complexity": 5,
	"revision_number": 1,
	"disabled": false,
	"provisioned": 0,
	"attempts": 0,
	"passes": 0,
	"failures": 0,
	"test_id": "SCCD-L",
	"test_type": "performance",
	"question_id": "SDL_KD_0006",
	"network": "commercial",
	"question_name": "linux_kernel_keylogger",
	"language": "Fedora",
	"question_proficiency": "2",
	"estimated_time_to_complete": 45,
	"work-roles": [
		"SCCD-L"
	],
	"map_for": "eval",
	"created_on": "2021-05-14"
}]

