[{
	"_id": {
		"$oid": "5ee9250a761cf87371cf30fe"
	},
	"KSATs": [
		{
			"object_id": {
				"$oid": "5f457f1e1ea90ba9adb32a3c"
			},
			"item_proficiency": "",
			"url": "https://www.mantech.com/advanced-cyber-training-program"
		},
		{
			"object_id": {
				"$oid": "5f457f1e1ea90ba9adb32a57"
			},
			"item_proficiency": "",
			"url": "https://www.mantech.com/advanced-cyber-training-program"
		},
		{
			"object_id": {
				"$oid": "5f457f1e1ea90ba9adb32d93"
			},
			"item_proficiency": "",
			"url": "https://www.mantech.com/advanced-cyber-training-program"
		},
		{
			"object_id": {
				"$oid": "5f457f1e1ea90ba9adb32a5c"
			},
			"item_proficiency": "",
			"url": "https://www.mantech.com/advanced-cyber-training-program"
		},
		{
			"object_id": {
				"$oid": "5f457f1e1ea90ba9adb32a5a"
			},
			"item_proficiency": "",
			"url": "https://www.mantech.com/advanced-cyber-training-program"
		},
		{
			"object_id": {
				"$oid": "5f457f1e1ea90ba9adb32c3b"
			},
			"item_proficiency": "",
			"url": "https://www.mantech.com/advanced-cyber-training-program"
		},
		{
			"object_id": {
				"$oid": "5f457f1e1ea90ba9adb32c68"
			},
			"item_proficiency": "",
			"url": "https://www.mantech.com/advanced-cyber-training-program"
		},
		{
			"object_id": {
				"$oid": "5f457f1e1ea90ba9adb32f04"
			},
			"item_proficiency": "",
			"url": "https://www.mantech.com/advanced-cyber-training-program"
		}
	],
	"network": "commercial",
	"course": "ACTP_Linux",
	"module": "actp-linux",
	"topic": "Python",
	"subject": "actp-linux-python",
	"work-roles": [
		"SCCD-L"
	],
	"map_for": "training",
	"topic_path": "./",
	"created_on": "2020-06-16"
},
{
	"_id": {
		"$oid": "5ee9250a761cf87371cf30ff"
	},
	"KSATs": [
		{
			"object_id": {
				"$oid": "5f457f1e1ea90ba9adb32c39"
			},
			"item_proficiency": "",
			"url": "https://www.mantech.com/advanced-cyber-training-program"
		},
		{
			"object_id": {
				"$oid": "5f457f1e1ea90ba9adb32c24"
			},
			"item_proficiency": "",
			"url": "https://www.mantech.com/advanced-cyber-training-program"
		},
		{
			"object_id": {
				"$oid": "5f457f1e1ea90ba9adb32c37"
			},
			"item_proficiency": "",
			"url": "https://www.mantech.com/advanced-cyber-training-program"
		},
		{
			"object_id": {
				"$oid": "5f457f1e1ea90ba9adb32c1d"
			},
			"item_proficiency": "",
			"url": "https://www.mantech.com/advanced-cyber-training-program"
		},
		{
			"object_id": {
				"$oid": "5f457f1e1ea90ba9adb32c33"
			},
			"item_proficiency": "",
			"url": "https://www.mantech.com/advanced-cyber-training-program"
		},
		{
			"object_id": {
				"$oid": "5f457f1e1ea90ba9adb32c2a"
			},
			"item_proficiency": "",
			"url": "https://www.mantech.com/advanced-cyber-training-program"
		},
		{
			"object_id": {
				"$oid": "5f457f1e1ea90ba9adb32c3b"
			},
			"item_proficiency": "",
			"url": "https://www.mantech.com/advanced-cyber-training-program"
		},
		{
			"object_id": {
				"$oid": "5f457f1e1ea90ba9adb32ea5"
			},
			"item_proficiency": "",
			"url": "https://www.mantech.com/advanced-cyber-training-program"
		},
		{
			"object_id": {
				"$oid": "5f457f1e1ea90ba9adb32ea3"
			},
			"item_proficiency": "",
			"url": "https://www.mantech.com/advanced-cyber-training-program"
		},
		{
			"object_id": {
				"$oid": "5f457f1e1ea90ba9adb32ea0"
			},
			"item_proficiency": "",
			"url": "https://www.mantech.com/advanced-cyber-training-program"
		},
		{
			"object_id": {
				"$oid": "5f457f1e1ea90ba9adb32ea1"
			},
			"item_proficiency": "",
			"url": "https://www.mantech.com/advanced-cyber-training-program"
		},
		{
			"object_id": {
				"$oid": "5f457f1e1ea90ba9adb32ea2"
			},
			"item_proficiency": "",
			"url": "https://www.mantech.com/advanced-cyber-training-program"
		},
		{
			"object_id": {
				"$oid": "5f457f1e1ea90ba9adb32ea4"
			},
			"item_proficiency": "",
			"url": "https://www.mantech.com/advanced-cyber-training-program"
		},
		{
			"object_id": {
				"$oid": "5f457f1e1ea90ba9adb32ea6"
			},
			"item_proficiency": "",
			"url": "https://www.mantech.com/advanced-cyber-training-program"
		},
		{
			"object_id": {
				"$oid": "5f457f1e1ea90ba9adb32ea7"
			},
			"item_proficiency": "",
			"url": "https://www.mantech.com/advanced-cyber-training-program"
		},
		{
			"object_id": {
				"$oid": "5f457f1e1ea90ba9adb32ea8"
			},
			"item_proficiency": "",
			"url": "https://www.mantech.com/advanced-cyber-training-program"
		},
		{
			"object_id": {
				"$oid": "5f457f1e1ea90ba9adb32eaa"
			},
			"item_proficiency": "",
			"url": "https://www.mantech.com/advanced-cyber-training-program"
		},
		{
			"object_id": {
				"$oid": "5f457f1e1ea90ba9adb32eab"
			},
			"item_proficiency": "",
			"url": "https://www.mantech.com/advanced-cyber-training-program"
		},
		{
			"object_id": {
				"$oid": "5f457f1e1ea90ba9adb32ea9"
			},
			"item_proficiency": "",
			"url": "https://www.mantech.com/advanced-cyber-training-program"
		},
		{
			"object_id": {
				"$oid": "5f457f1e1ea90ba9adb32eac"
			},
			"item_proficiency": "",
			"url": "https://www.mantech.com/advanced-cyber-training-program"
		},
		{
			"object_id": {
				"$oid": "5f457f1e1ea90ba9adb32a55"
			},
			"item_proficiency": "",
			"url": "https://www.mantech.com/advanced-cyber-training-program"
		},
		{
			"object_id": {
				"$oid": "5f457f1e1ea90ba9adb32ead"
			},
			"item_proficiency": "",
			"url": "https://www.mantech.com/advanced-cyber-training-program"
		},
		{
			"object_id": {
				"$oid": "5f457f1e1ea90ba9adb32eae"
			},
			"item_proficiency": "",
			"url": "https://www.mantech.com/advanced-cyber-training-program"
		},
		{
			"object_id": {
				"$oid": "5f457f1e1ea90ba9adb32eb3"
			},
			"item_proficiency": "",
			"url": "https://www.mantech.com/advanced-cyber-training-program"
		},
		{
			"object_id": {
				"$oid": "5f457f1e1ea90ba9adb32eaf"
			},
			"item_proficiency": "",
			"url": "https://www.mantech.com/advanced-cyber-training-program"
		},
		{
			"object_id": {
				"$oid": "5f457f1e1ea90ba9adb32eb2"
			},
			"item_proficiency": "",
			"url": "https://www.mantech.com/advanced-cyber-training-program"
		},
		{
			"object_id": {
				"$oid": "5f457f1e1ea90ba9adb32eb1"
			},
			"item_proficiency": "",
			"url": "https://www.mantech.com/advanced-cyber-training-program"
		},
		{
			"object_id": {
				"$oid": "5f457f1e1ea90ba9adb32eb0"
			},
			"item_proficiency": "",
			"url": "https://www.mantech.com/advanced-cyber-training-program"
		},
		{
			"object_id": {
				"$oid": "5f457f1e1ea90ba9adb32a56"
			},
			"item_proficiency": "",
			"url": "https://www.mantech.com/advanced-cyber-training-program"
		},
		{
			"object_id": {
				"$oid": "5f457f1e1ea90ba9adb32eb5"
			},
			"item_proficiency": "",
			"url": "https://www.mantech.com/advanced-cyber-training-program"
		},
		{
			"object_id": {
				"$oid": "5f457f1e1ea90ba9adb32eb6"
			},
			"item_proficiency": "",
			"url": "https://www.mantech.com/advanced-cyber-training-program"
		},
		{
			"object_id": {
				"$oid": "5f457f1e1ea90ba9adb32eb4"
			},
			"item_proficiency": "",
			"url": "https://www.mantech.com/advanced-cyber-training-program"
		},
		{
			"object_id": {
				"$oid": "5f457f1e1ea90ba9adb32eb7"
			},
			"item_proficiency": "",
			"url": "https://www.mantech.com/advanced-cyber-training-program"
		},
		{
			"object_id": {
				"$oid": "5f457f1e1ea90ba9adb32ebe"
			},
			"item_proficiency": "",
			"url": "https://www.mantech.com/advanced-cyber-training-program"
		},
		{
			"object_id": {
				"$oid": "5f457f1e1ea90ba9adb32a3c"
			},
			"item_proficiency": "",
			"url": "https://www.mantech.com/advanced-cyber-training-program"
		},
		{
			"object_id": {
				"$oid": "5f457f1e1ea90ba9adb32a57"
			},
			"item_proficiency": "",
			"url": "https://www.mantech.com/advanced-cyber-training-program"
		},
		{
			"object_id": {
				"$oid": "5f457f1e1ea90ba9adb32d93"
			},
			"item_proficiency": "",
			"url": "https://www.mantech.com/advanced-cyber-training-program"
		},
		{
			"object_id": {
				"$oid": "5f457f1e1ea90ba9adb32a5c"
			},
			"item_proficiency": "",
			"url": "https://www.mantech.com/advanced-cyber-training-program"
		},
		{
			"object_id": {
				"$oid": "5f457f1e1ea90ba9adb32a5a"
			},
			"item_proficiency": "",
			"url": "https://www.mantech.com/advanced-cyber-training-program"
		},
		{
			"object_id": {
				"$oid": "5f457f1e1ea90ba9adb32c17"
			},
			"item_proficiency": "",
			"url": "https://www.mantech.com/advanced-cyber-training-program"
		},
		{
			"object_id": {
				"$oid": "5f457f1e1ea90ba9adb32e9c"
			},
			"item_proficiency": "",
			"url": "https://www.mantech.com/advanced-cyber-training-program"
		},
		{
			"object_id": {
				"$oid": "5f457f1e1ea90ba9adb32e9b"
			},
			"item_proficiency": "",
			"url": "https://www.mantech.com/advanced-cyber-training-program"
		},
		{
			"object_id": {
				"$oid": "5f457f1e1ea90ba9adb32e98"
			},
			"item_proficiency": "",
			"url": "https://www.mantech.com/advanced-cyber-training-program"
		}
	],
	"network": "commercial",
	"course": "ACTP_Linux",
	"module": "actp-linux",
	"topic": "Kernel",
	"subject": "actp-linux-kernel",
	"work-roles": [
		"SCCD-L"
	],
	"map_for": "training",
	"topic_path": "./",
	"created_on": "2020-06-16",
	"updated_on": "2020-07-08"
},
{
	"_id": {
		"$oid": "5ee9250a761cf87371cf3100"
	},
	"KSATs": [
		{
			"object_id": {
				"$oid": "5f457f1e1ea90ba9adb32eee"
			},
			"item_proficiency": "",
			"url": "https://www.mantech.com/advanced-cyber-training-program"
		}
	],
	"network": "commercial",
	"course": "ACTP_Linux",
	"module": "actp-linux",
	"topic": "VR",
	"subject": "actp-linux-vulnerability-research",
	"work-roles": [
		"SCCD-L"
	],
	"map_for": "training",
	"topic_path": "./",
	"created_on": "2020-06-16"
},
{
	"_id": {
		"$oid": "5ee9250a761cf87371cf3101"
	},
	"KSATs": [
		{
			"object_id": {
				"$oid": "5f457f1e1ea90ba9adb32a66"
			},
			"item_proficiency": "",
			"url": "https://www.mantech.com/advanced-cyber-training-program"
		},
		{
			"object_id": {
				"$oid": "5f457f1e1ea90ba9adb32a67"
			},
			"item_proficiency": "",
			"url": "https://www.mantech.com/advanced-cyber-training-program"
		},
		{
			"object_id": {
				"$oid": "5f457f1e1ea90ba9adb32a6a"
			},
			"item_proficiency": "",
			"url": "https://www.mantech.com/advanced-cyber-training-program"
		},
		{
			"object_id": {
				"$oid": "5f457f1e1ea90ba9adb32a87"
			},
			"item_proficiency": "",
			"url": "https://www.mantech.com/advanced-cyber-training-program"
		},
		{
			"object_id": {
				"$oid": "5f457f1e1ea90ba9adb32a8a"
			},
			"item_proficiency": "",
			"url": "https://www.mantech.com/advanced-cyber-training-program"
		},
		{
			"object_id": {
				"$oid": "5f457f1e1ea90ba9adb32a65"
			},
			"item_proficiency": "",
			"url": "https://www.mantech.com/advanced-cyber-training-program"
		},
		{
			"object_id": {
				"$oid": "5f457f1e1ea90ba9adb32a83"
			},
			"item_proficiency": "",
			"url": "https://www.mantech.com/advanced-cyber-training-program"
		},
		{
			"object_id": {
				"$oid": "5f457f1e1ea90ba9adb32cb0"
			},
			"item_proficiency": "",
			"url": "https://www.mantech.com/advanced-cyber-training-program"
		},
		{
			"object_id": {
				"$oid": "5f457f1e1ea90ba9adb32caf"
			},
			"item_proficiency": "",
			"url": "https://www.mantech.com/advanced-cyber-training-program"
		},
		{
			"object_id": {
				"$oid": "5f457f1e1ea90ba9adb32cb2"
			},
			"item_proficiency": "",
			"url": "https://www.mantech.com/advanced-cyber-training-program"
		},
		{
			"object_id": {
				"$oid": "5f457f1e1ea90ba9adb32cca"
			},
			"item_proficiency": "",
			"url": "https://www.mantech.com/advanced-cyber-training-program"
		},
		{
			"object_id": {
				"$oid": "5f457f1e1ea90ba9adb32f07"
			},
			"item_proficiency": "",
			"url": "https://www.mantech.com/advanced-cyber-training-program"
		},
		{
			"object_id": {
				"$oid": "5f457f1e1ea90ba9adb32ef2"
			},
			"item_proficiency": "",
			"url": "https://www.mantech.com/advanced-cyber-training-program"
		},
		{
			"object_id": {
				"$oid": "5f457f1e1ea90ba9adb32eef"
			},
			"item_proficiency": "",
			"url": "https://www.mantech.com/advanced-cyber-training-program"
		}
	],
	"network": "commercial",
	"course": "ACTP_Linux",
	"module": "actp-linux",
	"topic": "Reverse-Engineering",
	"subject": "actp-linux-reverse-engineering",
	"work-roles": [
		"SCCD-L"
	],
	"map_for": "training",
	"topic_path": "./",
	"created_on": "2020-06-16"
},
{
	"_id": {
		"$oid": "5ee9250a761cf87371cf3102"
	},
	"KSATs": [
		{
			"object_id": {
				"$oid": "5f457f1e1ea90ba9adb32c70"
			},
			"item_proficiency": "",
			"url": "https://www.mantech.com/advanced-cyber-training-program"
		},
		{
			"object_id": {
				"$oid": "5f457f1e1ea90ba9adb32c72"
			},
			"item_proficiency": "",
			"url": "https://www.mantech.com/advanced-cyber-training-program"
		},
		{
			"object_id": {
				"$oid": "5f457f1e1ea90ba9adb32c71"
			},
			"item_proficiency": "",
			"url": "https://www.mantech.com/advanced-cyber-training-program"
		},
		{
			"object_id": {
				"$oid": "5f457f1e1ea90ba9adb32c73"
			},
			"item_proficiency": "",
			"url": "https://www.mantech.com/advanced-cyber-training-program"
		},
		{
			"object_id": {
				"$oid": "5f457f1e1ea90ba9adb32c75"
			},
			"item_proficiency": "",
			"url": "https://www.mantech.com/advanced-cyber-training-program"
		},
		{
			"object_id": {
				"$oid": "5f457f1e1ea90ba9adb32c74"
			},
			"item_proficiency": "",
			"url": "https://www.mantech.com/advanced-cyber-training-program"
		},
		{
			"object_id": {
				"$oid": "5f457f1e1ea90ba9adb32c76"
			},
			"item_proficiency": "",
			"url": "https://www.mantech.com/advanced-cyber-training-program"
		},
		{
			"object_id": {
				"$oid": "5f457f1e1ea90ba9adb32c77"
			},
			"item_proficiency": "",
			"url": "https://www.mantech.com/advanced-cyber-training-program"
		},
		{
			"object_id": {
				"$oid": "5f457f1e1ea90ba9adb32c78"
			},
			"item_proficiency": "",
			"url": "https://www.mantech.com/advanced-cyber-training-program"
		},
		{
			"object_id": {
				"$oid": "5f457f1e1ea90ba9adb32a8b"
			},
			"item_proficiency": "",
			"url": "https://www.mantech.com/advanced-cyber-training-program"
		},
		{
			"object_id": {
				"$oid": "5f457f1e1ea90ba9adb32a70"
			},
			"item_proficiency": "",
			"url": "https://www.mantech.com/advanced-cyber-training-program"
		},
		{
			"object_id": {
				"$oid": "5f457f1e1ea90ba9adb32a6b"
			},
			"item_proficiency": "",
			"url": "https://www.mantech.com/advanced-cyber-training-program"
		},
		{
			"object_id": {
				"$oid": "5f457f1e1ea90ba9adb32e9f"
			},
			"item_proficiency": "",
			"url": "https://www.mantech.com/advanced-cyber-training-program"
		},
		{
			"object_id": {
				"$oid": "5f457f1e1ea90ba9adb32a62"
			},
			"item_proficiency": "",
			"url": "https://www.mantech.com/advanced-cyber-training-program"
		},
		{
			"object_id": {
				"$oid": "5f457f1e1ea90ba9adb32a60"
			},
			"item_proficiency": "",
			"url": "https://www.mantech.com/advanced-cyber-training-program"
		},
		{
			"object_id": {
				"$oid": "5f457f1e1ea90ba9adb32a64"
			},
			"item_proficiency": "",
			"url": "https://www.mantech.com/advanced-cyber-training-program"
		},
		{
			"object_id": {
				"$oid": "5f457f1e1ea90ba9adb32a63"
			},
			"item_proficiency": "",
			"url": "https://www.mantech.com/advanced-cyber-training-program"
		},
		{
			"object_id": {
				"$oid": "5f457f1e1ea90ba9adb32a68"
			},
			"item_proficiency": "",
			"url": "https://www.mantech.com/advanced-cyber-training-program"
		},
		{
			"object_id": {
				"$oid": "5f457f1e1ea90ba9adb32f08"
			},
			"item_proficiency": "",
			"url": "https://www.mantech.com/advanced-cyber-training-program"
		}
	],
	"network": "commercial",
	"course": "ACTP_Linux",
	"module": "actp-linux",
	"topic": "Networking",
	"subject": "actp-linux-networking",
	"work-roles": [
		"SCCD-L"
	],
	"map_for": "training",
	"topic_path": "./",
	"created_on": "2020-06-16",
	"updated_on": "2020-10-27"
},
{
	"_id": {
		"$oid": "5ee9250a761cf87371cf3103"
	},
	"KSATs": [
		{
			"object_id": {
				"$oid": "5f457f1e1ea90ba9adb32c11"
			},
			"item_proficiency": "",
			"url": "https://www.mantech.com/advanced-cyber-training-program"
		},
		{
			"object_id": {
				"$oid": "5f457f1e1ea90ba9adb32c12"
			},
			"item_proficiency": "",
			"url": "https://www.mantech.com/advanced-cyber-training-program"
		}
	],
	"network": "commercial",
	"course": "ACTP_Linux",
	"module": "actp-linux",
	"topic": "Operating-System",
	"subject": "actp-linux-operating-system",
	"work-roles": [
		"SCCD-L"
	],
	"map_for": "training",
	"topic_path": "./",
	"created_on": "2020-06-16"
},
{
	"_id": {
		"$oid": "5ee9250a761cf87371cf3104"
	},
	"KSATs": [
		{
			"object_id": {
				"$oid": "5f457f1e1ea90ba9adb32dfd"
			},
			"item_proficiency": "",
			"url": "https://www.mantech.com/advanced-cyber-training-program"
		},
		{
			"object_id": {
				"$oid": "5f457f1e1ea90ba9adb32c25"
			},
			"item_proficiency": "",
			"url": "https://www.mantech.com/advanced-cyber-training-program"
		},
		{
			"object_id": {
				"$oid": "5f457f1e1ea90ba9adb32c22"
			},
			"item_proficiency": "",
			"url": "https://www.mantech.com/advanced-cyber-training-program"
		},
		{
			"object_id": {
				"$oid": "5f457f1e1ea90ba9adb32c2f"
			},
			"item_proficiency": "",
			"url": "https://www.mantech.com/advanced-cyber-training-program"
		},
		{
			"object_id": {
				"$oid": "5f457f1e1ea90ba9adb32c23"
			},
			"item_proficiency": "",
			"url": "https://www.mantech.com/advanced-cyber-training-program"
		},
		{
			"object_id": {
				"$oid": "5f457f1e1ea90ba9adb32c3a"
			},
			"item_proficiency": "",
			"url": "https://www.mantech.com/advanced-cyber-training-program"
		},
		{
			"object_id": {
				"$oid": "5f457f1e1ea90ba9adb32c28"
			},
			"item_proficiency": "",
			"url": "https://www.mantech.com/advanced-cyber-training-program"
		},
		{
			"object_id": {
				"$oid": "5f457f1e1ea90ba9adb32c27"
			},
			"item_proficiency": "",
			"url": "https://www.mantech.com/advanced-cyber-training-program"
		},
		{
			"object_id": {
				"$oid": "5f457f1e1ea90ba9adb32e18"
			},
			"item_proficiency": "",
			"url": "https://www.mantech.com/advanced-cyber-training-program"
		},
		{
			"object_id": {
				"$oid": "5f457f1e1ea90ba9adb32dee"
			},
			"item_proficiency": "",
			"url": "https://www.mantech.com/advanced-cyber-training-program"
		},
		{
			"object_id": {
				"$oid": "5f457f1e1ea90ba9adb32e21"
			},
			"item_proficiency": "",
			"url": "https://www.mantech.com/advanced-cyber-training-program"
		},
		{
			"object_id": {
				"$oid": "5f457f1e1ea90ba9adb32e1e"
			},
			"item_proficiency": "",
			"url": "https://www.mantech.com/advanced-cyber-training-program"
		},
		{
			"object_id": {
				"$oid": "5f457f1e1ea90ba9adb32df1"
			},
			"item_proficiency": "",
			"url": "https://www.mantech.com/advanced-cyber-training-program"
		},
		{
			"object_id": {
				"$oid": "5f457f1e1ea90ba9adb32de9"
			},
			"item_proficiency": "",
			"url": "https://www.mantech.com/advanced-cyber-training-program"
		},
		{
			"object_id": {
				"$oid": "5f457f1e1ea90ba9adb32e20"
			},
			"item_proficiency": "",
			"url": "https://www.mantech.com/advanced-cyber-training-program"
		},
		{
			"object_id": {
				"$oid": "5f457f1e1ea90ba9adb32e04"
			},
			"item_proficiency": "",
			"url": "https://www.mantech.com/advanced-cyber-training-program"
		},
		{
			"object_id": {
				"$oid": "5f457f1e1ea90ba9adb32e13"
			},
			"item_proficiency": "",
			"url": "https://www.mantech.com/advanced-cyber-training-program"
		},
		{
			"object_id": {
				"$oid": "5f457f1e1ea90ba9adb32dff"
			},
			"item_proficiency": "",
			"url": "https://www.mantech.com/advanced-cyber-training-program"
		},
		{
			"object_id": {
				"$oid": "5f457f1e1ea90ba9adb32e17"
			},
			"item_proficiency": "",
			"url": "https://www.mantech.com/advanced-cyber-training-program"
		},
		{
			"object_id": {
				"$oid": "5f457f1e1ea90ba9adb32e10"
			},
			"item_proficiency": "",
			"url": "https://www.mantech.com/advanced-cyber-training-program"
		},
		{
			"object_id": {
				"$oid": "5f457f1e1ea90ba9adb32e1c"
			},
			"item_proficiency": "",
			"url": "https://www.mantech.com/advanced-cyber-training-program"
		},
		{
			"object_id": {
				"$oid": "5f457f1e1ea90ba9adb32e2a"
			},
			"item_proficiency": "",
			"url": "https://www.mantech.com/advanced-cyber-training-program"
		},
		{
			"object_id": {
				"$oid": "5f457f1e1ea90ba9adb32e16"
			},
			"item_proficiency": "",
			"url": "https://www.mantech.com/advanced-cyber-training-program"
		},
		{
			"object_id": {
				"$oid": "5f457f1e1ea90ba9adb32def"
			},
			"item_proficiency": "",
			"url": "https://www.mantech.com/advanced-cyber-training-program"
		},
		{
			"object_id": {
				"$oid": "5f457f1e1ea90ba9adb32f0a"
			},
			"item_proficiency": "",
			"url": "https://www.mantech.com/advanced-cyber-training-program"
		}
	],
	"network": "commercial",
	"course": "ACTP_Linux",
	"module": "actp-linux",
	"topic": "Assembly",
	"subject": "actp-linux-assembly",
	"work-roles": [
		"SCCD-L"
	],
	"map_for": "training",
	"topic_path": "./",
	"created_on": "2020-06-16"
}]

